<Glide Version="1.0.7">
  <Window Name="instance115" Width="320" Height="240" BackColor="FFFFFF">
    <Button Name="next" X="136" Y="182" Width="150" Height="32" Alpha="255" Text="Next Customer" Font="4" FontColor="FF0000" DisabledFontColor="808080" TintColor="333333" TintAmount="0"/>
    <TextBox Name="details" X="68" Y="51" Width="200" Height="32" Alpha="255" Text="" TextAlign="center" Font="4" FontColor="000000"/>
    <TextBox Name="instance2443" X="0" Y="0" Width="320" Height="32" Alpha="255" Text="Goodbye!" TextAlign="center" Font="4" FontColor="000000"/>
    <TextBox Name="result" X="68" Y="94" Width="200" Height="32" Alpha="255" Text="" TextAlign="Center" Font="4" FontColor="000000"/>
  </Window>
</Glide>